{
    "KPlugin": {
        "Authors": [
            {
                "Email": "kexi@kde.org", 
                "Name": "Kexi Team", 
                "Name[ast]": "L'equipu de Kexi", 
                "Name[ca@valencia]": "L'equip del Kexi", 
                "Name[ca]": "L'equip del Kexi", 
                "Name[cs]": "Tým Kexi", 
                "Name[de]": "Kexi-Team", 
                "Name[es]": "El equipo de Kexi", 
                "Name[fi]": "Kexi-työryhmä", 
                "Name[gl]": "Equipo de Kexi", 
                "Name[it]": "La squadra di Kexi", 
                "Name[nl]": "Het team van Kexi", 
                "Name[pl]": "Zespół Kexi", 
                "Name[pt]": "Equipa do Kexi", 
                "Name[pt_BR]": "Equipe do Kexi", 
                "Name[sk]": "Tím Kexi", 
                "Name[sv]": "Kexi-gruppen", 
                "Name[uk]": "Команда Kexi", 
                "Name[x-test]": "xxKexi Teamxx"
            }
        ], 
        "Category": "", 
        "Dependencies": [], 
        "Description": "Web browser element for Reports", 
        "Description[ca@valencia]": "Element de navegador web per informes", 
        "Description[ca]": "Element de navegador web per informes", 
        "Description[de]": "Webbrowser-Element für Berichte", 
        "Description[es]": "Elemento de navegador Web para Reports", 
        "Description[fi]": "Verkkoselainelementti raportteihin", 
        "Description[gl]": "Elemento de navegador web para informes", 
        "Description[it]": "Elemento «browser web» per rapporti", 
        "Description[nl]": "Webbrowserelement voor rapporten", 
        "Description[pl]": "Element przeglądarki dla raportów", 
        "Description[pt]": "Elemento de navegador Web para os Relatórios", 
        "Description[pt_BR]": "Elemento Navegador Web para Relatórios", 
        "Description[sk]": "Prvok webového prehliadača pre správy", 
        "Description[sv]": "Webbläsarelement för rapporter", 
        "Description[uk]": "Елемент засобу для перегляду інтернету для звітів", 
        "Description[x-test]": "xxWeb browser element for Reportsxx", 
        "EnabledByDefault": true, 
        "Icon": "report-web-element",
        "Id": "org.kde.kreport.web", 
        "License": "LGPL", 
        "Name": "Web browser", 
        "Name[ca@valencia]": "Navegador web", 
        "Name[ca]": "Navegador web", 
        "Name[cs]": "Webový prohlížeč", 
        "Name[de]": "Webbrowser", 
        "Name[es]": "Navegador web", 
        "Name[it]": "Browser web", 
        "Name[nl]": "Webbrowser", 
        "Name[pl]": "Przeglądarka sieciowa", 
        "Name[pt]": "Navegador Web", 
        "Name[sv]": "Webbläsare", 
        "Name[uk]": "Переглядач інтернету", 
        "Name[x-test]": "xxWeb browserxx", 
        "ServiceTypes": [
            "KReport/Element"
        ], 
        "Version": "1.0", 
        "Website": "http://kexi-project.org"
    }, 
    "X-KDE-PluginInfo-LegacyName": "web", 
    "X-KReport-Priority": "50"
}
